House Dataset Exploration – CAP-6771 - Data-Mining Project (Fall-2025)
…
  # 3. (Optional) Filter to only show columns that HAVE NAs
  filter(NA_Count > 0) %>%
  
  # 4. (Optional) Add a percentage column
  mutate(NA_Percentage = (NA_Count / total_rows) * 100) %>%

  # 5. Sort by the highest NA count
  arrange(desc(NA_Count))

# Print the clean table
print(na_summary)

# A tibble: 80 × 3
   Column                                  NA_Count NA_Percentage
   <chr>                                      <int>         <dbl>
 1 PctOfHomesSellingForGain_AllHomes          12609          95.4
 2 PctOfHomesSellingForLoss_AllHomes          12609          95.4
 3 MedianRentalPrice_5BedroomOrMore           11994          90.8
 4 MedianRentalPricePerSqft_5BedroomOrMore    11752          88.9
 5 MedianRentalPricePerSqft_Studio            10875          82.3
 6 MedianRentalPrice_CondoCoop                10437          79.0
 7 MedianRentalPricePerSqft_DuplexTriplex     10293          77.9
 8 MedianRentalPrice_Studio                   10211          77.3
 9 MedianListingPrice_1Bedroom                10205          77.2
10 MedianRentalPrice_DuplexTriplex            10068          76.2
# ℹ 70 more rows
…
