Project 2 - Data Cubbing and Binning – CAP-6771 - Data-Mining Project (Fall-2025)
…
  # 3. (Optional) Filter to only show columns that HAVE NAs
  filter(NA_Count > 0) %>%
  
  # 4. (Optional) Add a percentage column
  mutate(NA_Percentage = (NA_Count / total_rows) * 100) %>%

  # 5. Sort by the highest NA count
  arrange(desc(NA_Count))

# Print the clean table
print(na_summary)

# A tibble: 80 × 3
   Column                                  NA_Count NA_Percentage
   <chr>                                      <int>         <dbl>
 1 PctOfHomesSellingForGain_AllHomes          12609          95.4
 2 PctOfHomesSellingForLoss_AllHomes          12609          95.4
 3 MedianRentalPrice_5BedroomOrMore           11994          90.8
 4 MedianRentalPricePerSqft_5BedroomOrMore    11752          88.9
 5 MedianRentalPricePerSqft_Studio            10875          82.3
 6 MedianRentalPrice_CondoCoop                10437          79.0
 7 MedianRentalPricePerSqft_DuplexTriplex     10293          77.9
 8 MedianRentalPrice_Studio                   10211          77.3
 9 MedianListingPrice_1Bedroom                10205          77.2
10 MedianRentalPrice_DuplexTriplex            10068          76.2
# ℹ 70 more rows
…
# This will scan cali_ts and report any gaps
gap_summary <- count_gaps(cali_ts)

# Print the summary
print(gap_summary)

# A tibble: 260 × 3
   .from      .to           .n
   <date>     <date>     <int>
 1 1996-05-01 1996-05-30    30
 2 1996-06-01 1996-06-29    29
 3 1996-07-01 1996-07-30    30
 4 1996-08-01 1996-08-30    30
 5 1996-09-01 1996-09-29    29
 6 1996-10-01 1996-10-30    30
 7 1996-11-01 1996-11-29    29
 8 1996-12-01 1996-12-30    30
 9 1997-01-01 1997-01-30    30
10 1997-02-01 1997-02-27    27
# ℹ 250 more rows
…
